…
In particular, we will be using these functions in conjunction with
`dplyr::mutate()` statements to apply modelling functions to nested
list-columns in dataframes:

``` r
by_country <- by_country %>% 
  mutate(model = map(data, country_model))
by_country
#> # A tibble: 142 x 4
#>   country     continent data              model   
#>   <fct>       <fct>     <list>            <list>  
#> 1 Afghanistan Asia      <tibble [12 × 4]> <S3: lm>
#> 2 Albania     Europe    <tibble [12 × 4]> <S3: lm>
#> 3 Algeria     Africa    <tibble [12 × 4]> <S3: lm>
#> 4 Angola      Africa    <tibble [12 × 4]> <S3: lm>
#> 5 Argentina   Americas  <tibble [12 × 4]> <S3: lm>
#> 6 Australia   Oceania   <tibble [12 × 4]> <S3: lm>
#> # … with 136 more rows
```
…
